{
  "local": {
    "config_id": "local",
    "node_port": 8080,
    "database": "nlpf_v1",
    "database_address": "localhost",
    "database_port": 5432,
    "database_user": "bob",
    "database_user_password": "123456",
    "private_key": "certificates/key.pem",
    "certificate": "certificates/cert.pem",
    "outlook_api_id": "8c53de8f-ec40-49d2-88fb-8837a837df05",
    "outlook_api_secret": "bBBC029sjygygMDDB87{$%~",
    "outlook_callback_url": "https://localhost:8080/auth/outlook/callback"
  },

  "development": {
    "config_id": "development",
    "node_port": 8080,
    "database": "nlpf_v1",
    "database_address": "localhost",
    "database_port": 5432,
    "database_user": "bob",
    "database_user_password": "123456",
    "private_key": "certificates/key.pem",
    "certificate": "certificates/cert.pem",
    "outlook_api_id": "8c53de8f-ec40-49d2-88fb-8837a837df05",
    "outlook_api_secret": "bBBC029sjygygMDDB87{$%~",
    "outlook_callback_url": "https://localhost:8080/auth/outlook/callback"
  },

  "production": {
    "config_id": "production",
    "node_port": 8080,
    "database": "nlpf_v1",
    "database_address": "localhost",
    "database_port": 5432,
    "database_user": "bob",
    "database_user_password": "123456",
    "private_key": "certificates/key.pem",
    "certificate": "certificates/cert.pem",
    "outlook_api_id": "8c53de8f-ec40-49d2-88fb-8837a837df05",
    "outlook_api_secret": "bBBC029sjygygMDDB87{$%~",
    "outlook_callback_url": "https://localhost:8080/auth/outlook/callback"
  }
}
